"Path","Platform","Compiled","Cooked","Permutations","Compiletime","CompiledDouble","CookedDouble"
"/ControlRig/Controls/ControlRigGizmoMaterial.ControlRigGizmoMaterial","0","0","4","1","0.000000","0","0"
"/MeshModelingToolset/Materials/M_DynamicMeshComponentVtxColor.M_DynamicMeshComponentVtxColor","0","0","18","1","0.000000","0","0"
"/Engine/EditorMaterials/PhAT_UnselectedMaterial.PhAT_UnselectedMaterial","0","0","3","1","0.000000","0","0"
"/Engine/EngineDebugMaterials/DebugEditorMaterial.DebugEditorMaterial","0","0","6","1","0.000000","0","0"
"/Engine/EditorMaterials/PhAT_NoCollisionMaterial.PhAT_NoCollisionMaterial","0","0","3","1","0.000000","0","0"
"/Engine/EngineMaterials/GizmoMaterial.GizmoMaterial","0","0","6","1","0.000000","0","0"
"/Engine/EngineDebugMaterials/DebugMeshMaterial.DebugMeshMaterial","0","0","5","1","0.000000","0","0"
"/Engine/EngineMaterials/RemoveSurfaceMaterial.RemoveSurfaceMaterial","0","0","4","1","0.000000","0","0"
"/Engine/EngineMaterials/NaniteHiddenSectionMaterial.NaniteHiddenSectionMaterial","0","0","27","1","0.000000","0","0"
"/ControlRig/Controls/ControlRigXRayMaterial.ControlRigXRayMaterial","0","0","7","1","0.000000","0","0"
"/Engine/EngineMaterials/DefaultLightFunctionMaterial.DefaultLightFunctionMaterial","0","0","35","1","0.000000","0","0"
"/Engine/EditorLandscapeResources/SplineEditorMeshMat.SplineEditorMeshMat","0","0","10","1","0.000000","0","0"
"/Engine/EngineDebugMaterials/M_SimpleUnlitTranslucent.M_SimpleUnlitTranslucent","0","0","3","1","0.000000","0","0"
"/Engine/EditorMaterials/Camera/CineMat.CineMat","0","0","26","1","0.000000","0","0"
"/Engine/VREditor/TransformGizmo/Xray.Xray","0","0","14","1","0.000000","0","0"
"/Engine/VREditor/TransformGizmo/Main.Main","0","0","3","1","0.000000","0","0"
"/Engine/VREditor/TransformGizmo/TranslucentTransformGizmoMaterial.TranslucentTransformGizmoMaterial","0","0","3","1","0.000000","0","0"
"/Game/LevelPrototyping/Materials/M_Solid.M_Solid","0","0","26","1","0.000000","0","0"
"/Game/Materials/TEP70_Testing/15_-_defaultm_onetex_004.15_-_defaultm_onetex_004","0","0","14","1","0.000000","0","0"
"/Game/Environments/Infrastructure/RailWays/Simple_RailWays/Material.Material","0","0","44","1","0.000000","0","0"
"/Engine/EngineMaterials/FlattenMaterial.FlattenMaterial","0","0","35","1","0.000000","0","0"
"/Engine/EngineMaterials/M_InvalidLightmapSettings.M_InvalidLightmapSettings","0","0","28","1","0.000000","0","0"
"/Engine/EngineMaterials/FlattenMaterial_WS_Normal_VT.FlattenMaterial_WS_Normal_VT","0","0","35","1","0.000000","0","0"
"/Engine/EngineMaterials/FlattenMaterial_VT.FlattenMaterial_VT","0","0","35","1","0.000000","0","0"
"/Engine/EngineMaterials/EmissiveMeshMaterial.EmissiveMeshMaterial","0","0","5","1","0.000000","0","0"
"/Engine/EngineDebugMaterials/M_VolumeRenderSphereTracePP.M_VolumeRenderSphereTracePP","0","0","4","1","0.000000","0","0"
"/Paper2D/DefaultSpriteMaterial.DefaultSpriteMaterial","0","0","42","2","0.000000","0","0"
"/Engine/EngineMaterials/PhAT_JointLimitMaterial.PhAT_JointLimitMaterial","0","0","7","1","0.000000","0","0"
"/ControlRig/M_Manip.M_Manip","0","0","7","1","0.000000","0","0"
"/Engine/VREditor/TransformGizmo/TransformGizmoMaterial.TransformGizmoMaterial","0","0","4","1","0.000000","0","0"
"/Engine/EngineMaterials/Widget3DPassThrough.Widget3DPassThrough","0","0","52","6","0.000000","0","3"
"/Engine/EngineSky/VolumetricClouds/m_SimpleVolumetricCloud.m_SimpleVolumetricCloud","0","0","68","1","0.000000","0","0"
"/Engine/EngineMaterials/DefaultPostProcessMaterial.DefaultPostProcessMaterial","0","0","6","1","0.000000","0","0"
"/Engine/EngineMaterials/DefaultDeferredDecalMaterial.DefaultDeferredDecalMaterial","0","0","87","1","0.000000","0","0"
"/Engine/EngineMaterials/DefaultMaterial.DefaultMaterial","0","0","127","1","0.000000","0","0"
"/Engine/EngineMaterials/DefaultTextMaterialOpaque.DefaultTextMaterialOpaque","0","0","29","1","0.000000","0","0"
"/Engine/EngineMaterials/WorldGridMaterial.WorldGridMaterial","0","0","637","1","0.000000","0","0"
"/Game/Materials/TEP70_Testing/21_-_defaultm_onetex_003.21_-_defaultm_onetex_003","0","0","14","1","0.000000","0","0"
"/Game/Materials/TEP70_Testing/20_-_defaultm_onetex_001.20_-_defaultm_onetex_001","0","0","14","1","0.000000","0","0"
"/Game/Materials/TEP70_Testing/11_-_defaultm_onetex_001.11_-_defaultm_onetex_001","0","0","14","1","0.000000","0","0"
"/Game/Materials/TEP70_Testing/14_-_defaultm_onetex_003.14_-_defaultm_onetex_003","0","0","14","1","0.000000","0","0"
"/Game/Materials/TEP70_Testing/17_-_defaultm_onetex_002.17_-_defaultm_onetex_002","0","0","14","1","0.000000","0","0"
"/Game/Materials/TEP70_Testing/08_-_defaultm_onetex_004.08_-_defaultm_onetex_004","0","0","14","1","0.000000","0","0"
"/Game/Materials/TEP70_Testing/12_-_defaultm_onetex_002.12_-_defaultm_onetex_002","0","0","14","1","0.000000","0","0"
"/Game/Materials/TEP70_Testing/24_-_defaultm_onetex_003.24_-_defaultm_onetex_003","0","0","14","1","0.000000","0","0"
"/Game/Materials/TEP70_Testing/02_-_defaultm_onetex_001.02_-_defaultm_onetex_001","0","0","14","1","0.000000","0","0"
"/Game/Materials/TEP70_Testing/projector_m_onetex_002.projector_m_onetex_002","0","0","14","1","0.000000","0","0"
"/Game/Materials/TEP70_Testing/02_-_defaultm_onetex_002.02_-_defaultm_onetex_002","0","0","14","1","0.000000","0","0"
"/Game/Materials/TEP70_Testing/18_-_defaultm_onetex_003.18_-_defaultm_onetex_003","0","0","14","1","0.000000","0","0"
"/Game/Materials/TEP70_Testing/TransBright9.TransBright9","0","0","14","1","0.000000","0","0"
"/Game/Materials/TEP70_Testing/SolidNorm1.SolidNorm1","0","0","14","1","0.000000","0","0"
"/Game/Materials/TEP70_Testing/TransNorm1.TransNorm1","0","0","14","1","0.000000","0","0"
"/Game/Materials/TEP70_Testing/TransBright8.TransBright8","0","0","14","1","0.000000","0","0"
"/Game/Materials/TEP70_Testing/TransNorm6.TransNorm6","0","0","14","1","0.000000","0","0"
"/Game/Materials/TEP70_Testing/TransNorm5.TransNorm5","0","0","14","1","0.000000","0","0"
"/Game/Materials/TEP70_Testing/TransNorm4.TransNorm4","0","0","14","1","0.000000","0","0"
"/Game/Materials/TEP70_Testing/TransBright0.TransBright0","0","0","14","1","0.000000","0","0"
"/Game/Materials/TEP70_Testing/TransBright7.TransBright7","0","0","14","1","0.000000","0","0"
"/Game/Materials/TEP70_Testing/TransBright6.TransBright6","0","0","14","1","0.000000","0","0"
"/Game/Materials/TEP70_Testing/TransBright5.TransBright5","0","0","14","1","0.000000","0","0"
"/Game/Materials/TEP70_Testing/TransBright4.TransBright4","0","0","14","1","0.000000","0","0"
"/Game/Materials/TEP70_Testing/TransBright3.TransBright3","0","0","14","1","0.000000","0","0"
"/Game/Materials/TEP70_Testing/TransBright2.TransBright2","0","0","14","1","0.000000","0","0"
"/Game/Materials/TEP70_Testing/TransBright1.TransBright1","0","0","14","1","0.000000","0","0"
"/Game/Materials/TEP70_Testing/TransNorm7.TransNorm7","0","0","14","1","0.000000","0","0"
"/Game/Materials/TEP70_Testing/SolidNorm0.SolidNorm0","0","0","14","1","0.000000","0","0"
"/Game/Environments/Infrastructure/RailWays/TrafficLights/1/Textures/kreplenie_m_onetex_001.kreplenie_m_onetex_001","0","0","14","1","0.000000","0","0"
"/Game/Environments/Infrastructure/RailWays/TrafficLights/1/Textures/tex_gol3_m_onetex.tex_gol3_m_onetex","0","0","14","1","0.000000","0","0"
"/Game/Environments/Infrastructure/RailWays/TrafficLights/1/Textures/texture_extra_m_onetex_001.texture_extra_m_onetex_001","0","0","14","1","0.000000","0","0"
"/Game/Materials/TEP70_Testing/AlphNorm1s2s.AlphNorm1s2s","0","0","14","1","0.000000","0","0"
"/Game/Materials/TEP70_Testing/TransNorm3.TransNorm3","0","0","14","1","0.000000","0","0"
"/Game/Materials/TEP70_Testing/TransNorm2.TransNorm2","0","0","14","1","0.000000","0","0"
"/Game/Materials/TEP70_Testing/TransNorm0.TransNorm0","0","0","14","1","0.000000","0","0"
"/Game/Materials/TEP70_Testing/Material_013.Material_013","0","0","14","1","0.000000","0","0"
"/Game/Materials/TEP70_Testing/Material_010.Material_010","0","0","14","1","0.000000","0","0"
"/Game/Environments/Infrastructure/RailWays/TrafficLights/1/Textures/tex_stolb_m_onetex_001.tex_stolb_m_onetex_001","0","0","14","1","0.000000","0","0"
"/Game/Environments/Infrastructure/RailWays/TrafficLights/1/Textures/kreplenie_m_onetex_002.kreplenie_m_onetex_002","0","0","14","1","0.000000","0","0"
"/Engine/EngineSky/M_Sky_Panning_Clouds2.M_Sky_Panning_Clouds2","0","0","4","1","0.000000","0","0"
"/Engine/EngineMaterials/PPM_DefaultCalibrationGrayscale.PPM_DefaultCalibrationGrayscale","0","0","4","1","0.000000","0","0"
"/Engine/EngineMaterials/PPM_DefaultCalibrationColor.PPM_DefaultCalibrationColor","0","0","4","1","0.000000","0","0"
"/Engine/EditorMaterials/PreviewShadowIndicatorMaterial.PreviewShadowIndicatorMaterial","0","0","35","1","0.000000","0","0"
"/SpeedTreeImporter/SpeedTree9/SpeedTreeBillboardMaster.SpeedTreeBillboardMaster","0","0","58","1","0.000000","0","0"
"/SpeedTreeImporter/SpeedTree9/SpeedTreeMaster.SpeedTreeMaster","0","0","84","1","0.000000","0","0"
"/Game/ThirdParty/ThirdPerson/Characters/Mannequin_UE4/Materials/M_MannequinUE4_Body.M_MannequinUE4_Body","0","0","108","2","0.000000","0","0"
"/Game/Characters/Mannequins/Materials/M_Mannequin.M_Mannequin","0","0","60","2","0.000000","0","60"
"/Game/LevelPrototyping/Materials/M_PrototypeGrid.M_PrototypeGrid","0","0","69","3","0.000000","0","23"
